<?xml version="1.0" encoding="UTF-8"?>
<svg width="30px" height="30px" viewBox="0 0 30 30" version="1.1" xmlns="http://www.w3.org/2000/svg" xmlns:xlink="http://www.w3.org/1999/xlink">
    <!-- Generator: Sketch 59.1 (86144) - https://sketch.com -->
    <title>Fill 1</title>
    <desc>Created with Sketch.</desc>
    <g id="Page-1" stroke="none" stroke-width="1" fill="none" fill-rule="evenodd" opacity="0.272763207">
        <g id="IoT-Lab-Stylesheet-Dark" transform="translate(-693.000000, -2284.000000)" fill="#29D5FF">
            <polygon id="Fill-1" points="693 2314 723 2314 723 2284 693 2284"></polygon>
        </g>
    </g>
</svg>