<?xml version="1.0" encoding="UTF-8"?>
<svg width="563px" height="544px" viewBox="0 0 563 544" version="1.1" xmlns="http://www.w3.org/2000/svg" xmlns:xlink="http://www.w3.org/1999/xlink">
    <!-- Generator: Sketch 59.1 (86144) - https://sketch.com -->
    <title>Group</title>
    <desc>Created with Sketch.</desc>
    <defs>
        <polygon id="path-1" points="0.440304292 0.258666667 414.394041 0.258666667 414.394041 15.7423815 0.440304292 15.7423815"></polygon>
    </defs>
    <g id="Page-1" stroke="none" stroke-width="1" fill="none" fill-rule="evenodd" opacity="0.821172805">
        <g id="Fridge-Status---No-information-found" transform="translate(-640.000000, -321.000000)">
            <g id="Group" transform="translate(640.000000, 321.000000)">
                <path d="M18,544 L548,544 L548,28 L18,28 L18,544 Z M22.0806307,540.436563 L543.915285,540.436563 L543.915285,31.5634375 L22.0806307,31.5634375 L22.0806307,540.436563 Z" id="Fill-1" fill="#29D5FF"></path>
                <polygon id="Fill-2" fill="#29D5FF" points="0 13 0 372 4.06847761 372 4.06847761 16.5656466 558.931522 16.5656466 558.931522 200.34264 541.990382 215.189992 544.866795 217.71447 563 201.818817 563 13"></polygon>
                <polygon id="Fill-3" fill="#29D5FF" points="543 341 526 356.320479 526 542 543 542"></polygon>
                <polygon id="Fill-5" fill="#29D5FF" points="19 464 2 479.252563 2 542 19 542"></polygon>
                <g id="Group-9" transform="translate(1.000000, 0.000000)">
                    <mask id="mask-2" fill="white">
                        <use xlink:href="#path-1"></use>
                    </mask>
                    <g id="Clip-8"></g>
                    <polygon id="Fill-7" fill="#29D5FF" mask="url(#mask-2)" points="414.394041 15.7423815 396.799395 0.254714815 0.440304292 0.254714815 0.440304292 15.7423815"></polygon>
                </g>
                <polygon id="Fill-11" fill="#29D5FF" points="535 59 531.03895 59 531.03895 41.4659185 511 41.4659185 511 38 535 38"></polygon>
                <polygon id="Fill-13" fill="#29D5FF" points="52 534 28 534 28 513 31.9617035 513 31.9617035 530.534082 52 530.534082"></polygon>
                <polygon id="Fill-14" fill="#29D5FF" points="31.9617035 59 28 59 28 38 52 38 52 41.4659185 31.9617035 41.4659185"></polygon>
                <polygon id="Fill-15" fill="#29D5FF" opacity="0.310081845" points="40 518 519 518 519 53 40 53"></polygon>
            </g>
        </g>
    </g>
</svg>