<?xml version="1.0" encoding="UTF-8"?>
<svg width="257px" height="35px" viewBox="0 0 257 35" version="1.1" xmlns="http://www.w3.org/2000/svg" xmlns:xlink="http://www.w3.org/1999/xlink">
    <!-- Generator: Sketch 59.1 (86144) - https://sketch.com -->
    <title>Group 7</title>
    <desc>Created with Sketch.</desc>
    <g id="Page-1" stroke="none" stroke-width="1" fill="none" fill-rule="evenodd">
        <g id="Buildings-Dashboard" transform="translate(-789.000000, -555.000000)">
            <g id="Group-7" transform="translate(916.000000, 574.000000) scale(-1, 1) translate(-916.000000, -574.000000) translate(789.000000, 558.000000)">
                <g id="iconfinder_Refrigerator_751078-Copy" transform="translate(232.000000, 2.000000)" fill="#29D5FF" fill-rule="nonzero">
                    <path d="M0.132478261,11.5195312 L0.132478261,28.025625 C0.132478261,29.0929687 1.089,29.956875 2.26695652,29.956875 L19.7330435,29.956875 C20.911,29.956875 21.8675217,29.0929687 21.8675217,28.025625 L21.8675217,11.5195312 L0.132478261,11.5195312 Z M20.4164783,26.881875 C20.4164783,27.7828125 19.5895652,28.513125 18.5708696,28.513125 L3.4563913,28.513125 C2.43626087,28.513125 1.60886957,27.7823438 1.60886957,26.881875 L1.60886957,12.9389063 L20.4164783,12.9389063 L20.4164783,26.881875 L20.4164783,26.881875 Z" id="Shape"></path>
                    <path d="M19.7330435,0.043125 L2.26695652,0.043125 C1.08852174,0.043125 0.132478261,1.04765625 0.132478261,2.2865625 L0.132478261,10.0664062 L21.8675217,10.0664062 L21.8675217,2.28609375 C21.8675217,1.0471875 20.911,0.043125 19.7330435,0.043125 Z M20.4475652,8.565 L1.5533913,8.565 L1.5533913,3.0796875 C1.5533913,2.2059375 2.3846087,1.49765625 3.40904348,1.49765625 L18.5914348,1.49765625 C19.6163478,1.49765625 20.4475652,2.2059375 20.4475652,3.0796875 L20.4475652,8.565 L20.4475652,8.565 Z" id="Shape"></path>
                    <path d="M5.21686957,6.5634375 C5.21686957,6.92578125 4.88543478,7.21875 4.47604348,7.21875 L4.47604348,7.21875 C4.0676087,7.21875 3.73569565,6.92578125 3.73569565,6.5634375 L3.73569565,3.62296875 C3.73569565,3.26109375 4.06713043,2.968125 4.47604348,2.968125 L4.47604348,2.968125 C4.88543478,2.968125 5.21686957,3.26109375 5.21686957,3.62296875 L5.21686957,6.5634375 Z" id="Path"></path>
                    <path d="M5.21686957,19.8604687 C5.21686957,20.3395312 4.88543478,20.7290625 4.47604348,20.7290625 L4.47604348,20.7290625 C4.0676087,20.7290625 3.73569565,20.34 3.73569565,19.8604687 L3.73569565,15.9675 C3.73569565,15.4889062 4.06713043,15.0998437 4.47604348,15.0998437 L4.47604348,15.0998437 C4.88543478,15.0998437 5.21686957,15.4884375 5.21686957,15.9675 L5.21686957,19.8604687 Z" id="Path"></path>
                </g>
                <g id="Group-2-Copy-4" transform="translate(110.500000, 10.500000) scale(-1, 1) translate(-110.500000, -10.500000) " stroke="#29D5FF">
                    <polyline id="Path-2" stroke-width="1.5" points="2 18 59.408377 18 79.6701571 3 217 3"></polyline>
                    <circle id="Oval" stroke-opacity="0.357981862" stroke-width="6" fill="#29D5FF" cx="3" cy="18" r="3"></circle>
                    <circle id="Oval-Copy" stroke-opacity="0.282643138" stroke-width="6" fill="#29D5FF" cx="218" cy="3" r="3"></circle>
                </g>
            </g>
        </g>
    </g>
</svg>