<?xml version="1.0" encoding="UTF-8"?>
<svg width="52px" height="52px" viewBox="0 0 52 52" version="1.1" xmlns="http://www.w3.org/2000/svg" xmlns:xlink="http://www.w3.org/1999/xlink">
    <!-- Generator: Sketch 59.1 (86144) - https://sketch.com -->
    <title>Group 9 Copy</title>
    <desc>Created with Sketch.</desc>
    <g id="Page-1" stroke="none" stroke-width="1" fill="none" fill-rule="evenodd">
        <g id="IoT-Lab-Stylesheet-Dark" transform="translate(-680.000000, -5323.000000)" stroke="#29D5FF">
            <g id="decoration1" transform="translate(592.000000, 5326.000000)">
                <g id="Group-9-Copy" transform="translate(114.000000, 23.000000) scale(-1, -1) translate(-114.000000, -23.000000) translate(91.000000, 0.000000)">
                    <circle id="Oval-Copy" stroke-opacity="0.282643138" stroke-width="6" fill="#29D5FF" cx="43" cy="43" r="3"></circle>
                    <circle id="Oval-Copy-2" stroke-opacity="0.282643138" stroke-width="6" fill="#29D5FF" cx="3" cy="3" r="3"></circle>
                    <polyline id="Path-3" stroke-width="1.5" points="3 3 3 43 43 43"></polyline>
                </g>
            </g>
        </g>
    </g>
</svg>