<?xml version="1.0" encoding="UTF-8"?>
<svg width="576px" height="391px" viewBox="0 0 576 391" version="1.1" xmlns="http://www.w3.org/2000/svg" xmlns:xlink="http://www.w3.org/1999/xlink">
    <!-- Generator: Sketch 59.1 (86144) - https://sketch.com -->
    <title>Group 6</title>
    <desc>Created with Sketch.</desc>
    <g id="Page-1" stroke="none" stroke-width="1" fill="none" fill-rule="evenodd">
        <g id="IoT-Lab-Stylesheet-Dark" transform="translate(-67.000000, -3665.000000)" fill="#29D5FF">
            <g id="fridges_tile" transform="translate(67.000000, 3665.000000)">
                <g id="Group-6">
                    <path d="M22.8272532,371.46722 L554.172747,371.46722 L554.172747,20.5327803 L22.8272532,20.5327803 L22.8272532,371.46722 Z M20,374 L557,374 L557,18 L20,18 L20,374 Z" id="Fill-1"></path>
                    <polygon id="Fill-2" points="0 376 0 391 15 391 15 388.428865 2.57113473 388.428865 2.57113473 376"></polygon>
                    <polygon id="Fill-3" points="0 0 0 15 2.57113473 15 2.57113473 2.5702536 15 2.5702536 15 0"></polygon>
                    <polygon id="Fill-4" points="573.428865 376 573.428865 388.428865 561 388.428865 561 391 576 391 576 376"></polygon>
                    <polygon id="Fill-5" points="561 0 561 2.5702536 573.428865 2.5702536 573.428865 15 576 15 576 0"></polygon>
                </g>
            </g>
        </g>
    </g>
</svg>