<?xml version="1.0" encoding="UTF-8"?>
<svg width="256px" height="46px" viewBox="0 0 256 46" version="1.1" xmlns="http://www.w3.org/2000/svg" xmlns:xlink="http://www.w3.org/1999/xlink">
    <!-- Generator: Sketch 59.1 (86144) - https://sketch.com -->
    <title>Group 15</title>
    <desc>Created with Sketch.</desc>
    <g id="Fridge-Status" stroke="none" stroke-width="1" fill="none" fill-rule="evenodd">
        <g id="Fridge-Status_Dashboard-III" transform="translate(-816.000000, -529.000000)">
            <g id="Group-5-Copy" transform="translate(816.000000, 519.000000)">
                <g id="Group-15" transform="translate(0.000000, 10.000000)">
                    <g id="lightbulb" fill="#29D5FF" fill-rule="nonzero">
                        <path d="M19,9 C12.3956835,9 7,14.4347826 7,21.0869565 C7,24.5652174 8.51079137,27.9130435 11.057554,30.173913 C12.9568345,32.0869565 12.7841727,36.173913 12.7410072,36.2173913 C12.7410072,36.4347826 12.7841727,36.6086957 12.9568345,36.7826087 C13.0863309,36.9130435 13.3021583,37 13.4748201,37 L24.4820144,37 C24.6978417,37 24.8705036,36.9130435 25,36.7826087 C25.1294964,36.6521739 25.2158273,36.4347826 25.2158273,36.2173913 C25.2158273,36.173913 25,32.0869565 26.8992806,30.173913 C26.942446,30.1304348 26.9856115,30.0869565 27.028777,30.0434783 C29.5323741,27.7391304 31,24.4782609 31,21.0869565 C31,14.4347826 25.6043165,9 19,9 Z M25.9064748,29.0434783 C25.8633094,29.0869565 25.7769784,29.173913 25.7769784,29.2173913 C24.0935252,31.0434783 23.7913669,34.0434783 23.7482014,35.4782609 L14.2086331,35.4782609 C14.1654676,34.0434783 13.8633094,30.9130435 12.0503597,29.0434783 C9.76258993,27.0434783 8.42446043,24.1304348 8.42446043,21.0434783 C8.42446043,15.173913 13.1294964,10.4347826 18.9568345,10.4347826 C24.7841727,10.4347826 29.4892086,15.173913 29.4892086,21.0434783 C29.4892086,24.1304348 28.1942446,27.0434783 25.9064748,29.0434783 Z" id="Shape"></path>
                        <path d="M18.7295897,13 C18.3433363,13 18,13.3433476 18,13.7296137 C18,14.1158798 18.3433363,14.4592275 18.7295897,14.4592275 C23.0642111,14.4592275 26.5404916,17.9785408 26.5404916,22.2703863 C26.5404916,22.6566524 26.883828,23 27.2700814,23 C27.6563348,23 27.9996711,22.6566524 27.9996711,22.2703863 C28.0425882,17.1630901 23.879635,13 18.7295897,13 Z" id="Path"></path>
                        <path d="M24.2156863,38 L14.7843137,38 C13.8071895,38 13,38.6785714 13,39.5 C13,40.3214286 13.8071895,41 14.7843137,41 L24.1732026,41 C25.1928105,40.9642857 26,40.3214286 26,39.5 C26,38.6785714 25.1928105,38 24.2156863,38 Z M24.2156863,39.75 L14.7843137,39.75 C14.6143791,39.75 14.4444444,39.6428571 14.4444444,39.4642857 C14.4444444,39.2857143 14.5718954,39.1785714 14.7843137,39.1785714 L24.1732026,39.1785714 C24.3431373,39.1785714 24.5130719,39.2857143 24.5130719,39.4642857 C24.5130719,39.6428571 24.3856209,39.75 24.2156863,39.75 Z" id="Shape"></path>
                        <path d="M22.25,43 L15.75,43 C14.7916667,43 14,43.6785714 14,44.5 C14,45.3214286 14.7916667,46 15.75,46 L22.25,46 C23.2083333,46 24,45.3214286 24,44.5 C24,43.6428571 23.2083333,43 22.25,43 Z M22.25,44.75 L15.75,44.75 C15.5833333,44.75 15.4166667,44.6428571 15.4166667,44.4642857 C15.4166667,44.2857143 15.5416667,44.1785714 15.75,44.1785714 L22.25,44.1785714 C22.4166667,44.1785714 22.5833333,44.2857143 22.5833333,44.4642857 C22.5833333,44.6428571 22.4166667,44.75 22.25,44.75 Z" id="Shape"></path>
                        <path d="M19.5,6 C19.7941176,6 20,5.68 20,5.32 L20,0.68 C20,0.32 19.7647059,0 19.5,0 C19.2352941,0 19,0.32 19,0.68 L19,5.32 C19,5.68 19.2352941,6 19.5,6 Z" id="Path"></path>
                        <path d="M30.6942694,4.12352563 C30.3676633,3.89314101 29.9594056,4.00833332 29.7552767,4.27711537 L27.1424275,7.96326923 C26.8974729,8.27044872 26.9791244,8.69282051 27.3057306,8.88480769 C27.4282079,8.96160256 27.5506852,9 27.6731625,9 C27.9181171,9 28.122246,8.88480769 28.2447233,8.69282051 L30.8575725,5.00666665 C31.1025271,4.7378846 31.0208756,4.31551281 30.6942694,4.12352563 Z" id="Path"></path>
                        <path d="M10.3063503,9 C10.4307646,9 10.5551789,8.95445089 10.6795932,8.86335268 C11.0113647,8.63560714 11.0943076,8.13456697 10.8869504,7.77017411 L8.31572129,3.35191072 C8.1083641,2.98751786 7.65217829,2.89641965 7.32040679,3.12416519 C6.9886353,3.35191072 6.90569242,3.8529509 7.11304961,4.21734376 L9.68427871,8.63560714 C9.85016446,8.90890179 10.0575216,9 10.3063503,9 Z" id="Path"></path>
                        <path d="M5.6109845,13.5579747 L1.12783126,11.0794938 C0.772730016,10.8992406 0.284465801,11.0344305 0.106915178,11.3949368 C-0.115023101,11.7554431 0.0181398663,12.2511393 0.417628769,12.4313925 L4.90078201,14.9098734 C5.03394498,14.9549367 5.12272029,15 5.25588326,15 C5.52220919,15 5.78853513,14.8648101 5.92169809,14.5944304 C6.09924872,14.2339241 5.96608575,13.7382279 5.6109845,13.5579747 Z" id="Path"></path>
                        <path d="M37.9219034,11.3949368 C37.7448184,11.0344305 37.2578345,10.8992406 36.9036643,11.0794938 L32.3879954,13.5579747 C32.0338253,13.7382279 31.9010115,14.2339241 32.0780966,14.5944304 C32.2109104,14.8648101 32.476538,15 32.7421655,15 C32.8749793,15 33.0077931,14.9549367 33.0963357,14.9098734 L37.6120046,12.4313925 C37.9661747,12.2511393 38.0989885,11.7554431 37.9219034,11.3949368 Z" id="Path"></path>
                    </g>
                    <g id="Group-2-Copy-2" transform="translate(49.000000, 13.000000)" stroke="#29D5FF">
                        <polyline id="Path-2" stroke-width="1.5" points="2 18 55.1361257 18 73.8900524 3 201 3"></polyline>
                        <circle id="Oval" stroke-opacity="0.51294799" stroke-width="6" fill="#29D5FF" cx="3" cy="18" r="3"></circle>
                        <circle id="Oval-Copy" stroke-opacity="0.51294799" stroke-width="6" fill="#29D5FF" cx="201" cy="3" r="3"></circle>
                    </g>
                </g>
            </g>
        </g>
    </g>
</svg>