<?xml version="1.0" encoding="UTF-8"?>
<svg width="143px" height="165px" viewBox="0 0 143 165" version="1.1" xmlns="http://www.w3.org/2000/svg" xmlns:xlink="http://www.w3.org/1999/xlink">
    <!-- Generator: Sketch 59.1 (86144) - https://sketch.com -->
    <title>Group 18</title>
    <desc>Created with Sketch.</desc>
    <defs>
        <polygon id="path-1" points="0.357891304 0.497405769 142.667205 0.497405769 142.667205 105.851829 0.357891304 105.851829"></polygon>
        <polygon id="path-3" points="0.756245342 0.634701923 20.3380124 0.634701923 20.3380124 20.2041058 0.756245342 20.2041058"></polygon>
    </defs>
    <g id="Page-1" stroke="none" stroke-width="1" fill="none" fill-rule="evenodd">
        <g id="Fridge-Status" transform="translate(-1200.000000, -1230.000000)">
            <g id="Group-18" transform="translate(1200.000000, 1230.000000)">
                <g id="Group-13-Copy">
                    <mask id="mask-2" fill="white">
                        <use xlink:href="#path-1"></use>
                    </mask>
                    <g id="Clip-12"></g>
                    <polygon id="Fill-11" fill="#29D5FF" mask="url(#mask-2)" points="142.667519 105.851829 141.099196 105.851829 141.099196 16.0419635 14.8052826 16.0419635 0.357891304 1.60705962 1.46512733 0.497405769 15.4545683 14.4746558 142.667519 14.4746558"></polygon>
                </g>
                <g id="Group-16-Copy" transform="translate(122.000000, 143.000000)">
                    <mask id="mask-4" fill="white">
                        <use xlink:href="#path-3"></use>
                    </mask>
                    <g id="Clip-15"></g>
                    <polygon id="Fill-14" fill="#29D5FF" mask="url(#mask-4)" points="20.3383261 20.2041058 0.756245342 20.2041058 0.756245342 18.6367981 18.7700031 18.6367981 18.7700031 0.634701923 20.3383261 0.634701923"></polygon>
                </g>
                <g id="loupe-copy" opacity="0.409923735" transform="translate(33.000000, 52.000000)" fill="#29D5FF" fill-rule="nonzero">
                    <path d="M45.5,28 C44.672,28 44,28.448 44,29 C44,29.552 44.672,30 45.5,30 C46.328,30 47,29.552 47,29 C47,28.448 46.328,28 45.5,28 Z" id="Path"></path>
                    <path d="M73.2833496,64.9979004 L53.7306152,45.445166 C56.915918,40.6472168 58.59375,35.0910645 58.59375,29.296875 C58.59375,13.1425781 45.4511719,0 29.296875,0 C13.1425781,0 0,13.1425781 0,29.296875 C0,45.4511719 13.1425781,58.59375 29.296875,58.59375 C35.0912109,58.59375 40.6473633,56.9157715 45.445166,53.7307617 L50.849707,59.1353027 C50.8504395,59.1360352 50.8511719,59.1367676 50.8520508,59.1376465 L64.9977539,73.2833496 C66.1048828,74.390332 67.5760254,75 69.140625,75 C70.7052246,75 72.1763672,74.390332 73.2829102,73.2837891 C74.3901855,72.1773926 75,70.7061035 75,69.140625 C75,67.5751465 74.3901855,66.1038574 73.2833496,64.9979004 Z M45.0372444,50.9542528 C45.0372444,50.9544 45.0370972,50.9544 45.03695,50.9545472 C40.4926417,54.2552694 35.1202083,56 29.5,56 C14.8879,56 3,44.1121 3,29.5 C3,14.8879 14.8879,3 29.5,3 C44.1121,3 56,14.8879 56,29.5 C56,35.1202083 54.2552694,40.4926417 50.9544,45.0370972 C49.3030083,47.3121222 47.3122694,49.3030083 45.0372444,50.9542528 Z M48,51.9933625 C49.461658,50.7976275 50.7977687,49.4615167 51.9933625,48 L56,52.0066375 C54.781528,53.4447112 53.4447112,54.7816693 52.0066375,56 L48,51.9933625 Z M71.1418322,71.1418252 C70.5883645,71.6952974 69.8531895,72 69.0715994,72 C68.2900093,72 67.5548343,71.6952974 67.0013666,71.1418252 L54,58.1403529 C55.4827956,56.867806 56.8679291,55.4828077 58.1403192,54 L71.142125,67.0019116 C71.6952999,67.5545053 72,68.2893934 72,69.0715756 C72,69.8537577 71.6952999,70.5886458 71.1418322,71.1418252 Z" id="Shape"></path>
                    <path d="M29.5,6 C16.5419531,6 6,16.5419531 6,29.5 C6,42.4580469 16.5419531,53 29.5,53 C42.4580469,53 53,42.4580469 53,29.5 C53,16.5419531 42.4580469,6 29.5,6 Z M29.5,50 C18.1963,50 9,40.8037 9,29.5 C9,18.1963 18.1963,9 29.5,9 C40.8037,9 50,18.1963 50,29.5 C50,40.8037 40.8037,50 29.5,50 Z" id="Shape"></path>
                    <path d="M45.9020244,22.9014593 C44.6391371,19.4406428 42.4402673,16.4816849 39.5428569,14.3446941 C36.5765165,12.1565909 33.0921737,11 29.4665977,11 C28.6567424,11 28,11.6914838 28,12.5441801 C28,13.3968763 28.6567424,14.0883602 29.4665977,14.0883602 C35.4941674,14.0883602 40.9986018,18.0751244 43.1640332,24.0092541 C43.3881293,24.6232201 43.9438232,25 44.5333954,25 C44.7082139,25 44.8861122,24.9668001 45.059024,24.8968488 C45.8150551,24.5909467 46.1925574,23.6976385 45.9020244,22.9014593 Z" id="Path"></path>
                </g>
                <path d="M62.1481818,140 L60,142.2496 L72.767,156.0208 L71.4054545,157.4896 L71.4131818,157.4816 L60.0695455,169.7168 L62.1852727,172 C65.321,168.6192 74.0744545,159.1776 77,156.0208 C74.8270909,153.6752 76.9459091,155.9616 62.1481818,140" id="arrow_right-[#333]-copy-2" fill="#29D5FF" transform="translate(68.500000, 156.000000) rotate(-270.000000) translate(-68.500000, -156.000000) "></path>
            </g>
        </g>
    </g>
</svg>