<?xml version="1.0" encoding="UTF-8"?>
<svg width="30px" height="30px" viewBox="0 0 30 30" version="1.1" xmlns="http://www.w3.org/2000/svg" xmlns:xlink="http://www.w3.org/1999/xlink">
    <!-- Generator: Sketch 62 (91390) - https://sketch.com -->
    <title>Group 12</title>
    <desc>Created with Sketch.</desc>
    <g id="Page-1" stroke="none" stroke-width="1" fill="none" fill-rule="evenodd">
        <g id="IoT-Lab-Stylesheet-Dark" transform="translate(-693.000000, -2190.000000)">
            <g id="Group-12" transform="translate(693.000000, 2190.000000)">
                <polygon id="Fill-1" fill="#CE1674" opacity="0.657203311" points="0 30 30 30 30 0 0 0"></polygon>
                <line x1="6.3" y1="6" x2="23.3" y2="23" id="Line-2" stroke="#FFFFFF" stroke-width="3" stroke-linecap="round" stroke-linejoin="round"></line>
                <line x1="6.3" y1="6" x2="23.3" y2="23" id="Line-2" stroke="#FFFFFF" stroke-width="3" stroke-linecap="round" stroke-linejoin="round" transform="translate(15.000000, 14.500000) rotate(-270.000000) translate(-15.000000, -14.500000) "></line>
            </g>
        </g>
    </g>
</svg>