<?xml version="1.0" encoding="UTF-8"?>
<svg width="40px" height="37px" viewBox="0 0 40 37" version="1.1" xmlns="http://www.w3.org/2000/svg" xmlns:xlink="http://www.w3.org/1999/xlink">
    <!-- Generator: Sketch 59.1 (86144) - https://sketch.com -->
    <title>wireless-internet</title>
    <desc>Created with Sketch.</desc>
    <g id="Page-1" stroke="none" stroke-width="1" fill="none" fill-rule="evenodd">
        <g id="IoT-Lab-Stylesheet-Dark" transform="translate(-704.000000, -536.000000)" fill="#D21777" fill-rule="nonzero">
            <g id="connection_pink" transform="translate(704.000000, 536.000000)">
                <g id="wireless-internet">
                    <path d="M19.6545454,16.7796164 C18.2092812,16.7796164 17.0339394,17.9370983 17.0339394,19.360401 C17.0339394,20.7837037 18.2092812,21.9411856 19.6545454,21.9411856 C21.0998097,21.9411856 22.2751515,20.7837037 22.2751515,19.360401 C22.2751515,17.9370983 21.0998097,16.7796164 19.6545454,16.7796164 Z M19.6545454,20.6507933 C18.9319133,20.6507933 18.3442424,20.0720523 18.3442424,19.360401 C18.3442424,18.6487496 18.9319133,18.0700087 19.6545454,18.0700087 C20.3771776,18.0700087 20.9648485,18.6487496 20.9648485,19.360401 C20.9648485,20.0720523 20.3771776,20.6507933 19.6545454,20.6507933 Z" id="Shape"></path>
                    <path d="M19.6545454,13.5536356 C16.4036836,13.5536356 13.7581818,16.1582925 13.7581818,19.360401 C13.7581818,21.3979304 14.8719394,23.3128726 16.6644339,24.3574452 C16.9769412,24.5393905 17.3778939,24.4380947 17.5619915,24.1303362 C17.7460891,23.823868 17.6432303,23.4283627 17.3313782,23.2470626 C15.9359054,22.4341155 15.0684848,20.9443575 15.0684848,19.360401 C15.0684848,16.870589 17.1256606,14.8440279 19.6545454,14.8440279 C22.1834303,14.8440279 24.240606,16.870589 24.240606,19.360401 C24.240606,20.9443575 23.3731854,22.4334703 21.9770576,23.2470626 C21.6658606,23.4283627 21.5623466,23.8245132 21.7464442,24.1309813 C21.8689576,24.3342181 22.087123,24.4471275 22.3111848,24.4471275 C22.424526,24.4471275 22.5398327,24.4180936 22.6440018,24.3568 C24.4371515,23.3128726 25.5509091,21.3979304 25.5509091,19.360401 C25.5509091,16.1582925 22.9054073,13.5536356 19.6545454,13.5536356 Z" id="Path"></path>
                    <path d="M19.6545454,0.00451637308 C8.81702908,0.00451637308 0,8.68756621 0,19.360401 C0,26.175608 3.70946788,32.5662759 9.67986363,36.036786 C9.78468787,36.0974344 9.89868423,36.1264947 10.0120254,36.1264947 C10.2360873,36.1264947 10.4549079,36.0129137 10.5767661,35.8096769 C10.7608636,35.5025636 10.6573497,35.1070583 10.3454976,34.9257582 C4.77277878,31.6855831 1.31030303,25.7213899 1.31030303,19.360401 C1.31030303,9.39921757 9.5396612,1.29490868 19.6545454,1.29490868 C29.7694297,1.29490868 37.9987878,9.39921757 37.9987878,19.360401 C37.9987878,25.7213899 34.5363121,31.6862283 28.9629382,34.9257582 C28.651086,35.1070583 28.5475721,35.5025636 28.7316697,35.8096769 C28.9151121,36.1161451 29.31672,36.2174409 29.6292272,36.0374312 C35.599623,32.5662759 39.3090909,26.175608 39.3090909,19.360401 C39.3090909,8.68756621 30.4920618,0.00451637308 19.6545454,0.00451637308 Z" id="Path"></path>
                    <path d="M34.7230303,19.360401 C34.7230303,11.1773782 27.9631769,4.52088945 19.6545454,4.52088945 C11.3459139,4.52088945 4.5860606,11.1773782 4.5860606,19.360401 C4.5860606,24.5781023 7.43072848,29.4751411 12.0095824,32.1410916 C12.1144067,32.2023852 12.2290582,32.2314191 12.3423994,32.2314191 C12.5664612,32.2314191 12.7846267,32.1178645 12.90714,31.9146277 C13.0912376,31.6075144 12.9883788,31.2120091 12.6765267,31.0313542 C8.49403939,28.5950935 5.89636363,24.1238842 5.89636363,19.360401 C5.89636363,11.8896747 12.0678909,5.81128176 19.6545454,5.81128176 C27.2412,5.81128176 33.4127272,11.8896747 33.4127272,19.360401 C33.4127272,24.1238842 30.8150515,28.5950935 26.6325642,31.030709 C26.3207121,31.2113639 26.2178533,31.6075144 26.4019509,31.9139825 C26.5867036,32.2210959 26.9883115,32.3230369 27.2995085,32.1410916 C31.8783624,29.4751411 34.7230303,24.5774571 34.7230303,19.360401 Z" id="Path"></path>
                    <path d="M30.1369697,19.360401 C30.1369697,13.6684805 25.4342921,9.03726253 19.6545454,9.03726253 C13.8747988,9.03726253 9.1721212,13.6684805 9.1721212,19.360401 C9.1721212,22.9831774 11.1519891,26.3878775 14.3399564,28.2441068 C14.6531188,28.4266973 15.0534163,28.3241111 15.2375139,28.0169978 C15.4216115,27.7105296 15.3187527,27.3150244 15.0069006,27.1337242 C12.2159551,25.5078299 10.4824242,22.5296045 10.4824242,19.360401 C10.4824242,14.3794867 14.5967757,10.3276548 19.6545454,10.3276548 C24.7123151,10.3276548 28.8266666,14.3794867 28.8266666,19.360401 C28.8266666,22.5289593 27.0931357,25.5078299 24.3015351,27.1337242 C23.9903382,27.3150244 23.8868242,27.7111748 24.0709218,28.0169978 C24.1934351,28.2208798 24.4116006,28.3337891 24.6356624,28.3337891 C24.7490036,28.3337891 24.8636551,28.3047553 24.9684794,28.2434616 C28.1571018,26.3865871 30.1369697,22.9831774 30.1369697,19.360401 Z" id="Path"></path>
                </g>
            </g>
        </g>
    </g>
</svg>